<svg width="375" height="359" viewBox="0 0 375 359" fill="none" xmlns="http://www.w3.org/2000/svg">
<g clip-path="url(#clip0)">
<path d="M278.611 45.7443C304.909 74.9826 318.615 111.902 322.464 148.329C326.237 184.756 320.154 220.765 305.395 257.125C290.71 293.41 267.349 330.054 233.01 347.286C198.603 364.527 153.144 362.289 119.148 343.521C85.2356 324.744 62.7109 289.361 39.5588 252.725C16.4066 216.09 -7.44004 178.193 0.676185 148.254C8.79241 118.314 48.7962 96.4063 83.1354 68.5622C117.475 40.785 146.074 7.07998 179.785 1.01024C213.497 -4.99271 252.313 16.506 278.611 45.7443Z" fill="#F0F0F0"/>
<path d="M33.141 293.594C33.0573 293.594 32.9653 293.585 32.8816 293.569C32.3628 293.477 31.9277 293.118 31.752 292.617L8.91781 229.632L-13.908 166.655C-14.0837 166.162 -13.9917 165.603 -13.6486 165.202C-13.3056 164.802 -12.7785 164.609 -12.2597 164.701L53.8164 176.465L119.893 188.229C120.411 188.321 120.846 188.68 121.022 189.181C121.198 189.673 121.106 190.233 120.763 190.633L77.5125 241.855L34.2622 293.076C33.9861 293.41 33.5677 293.594 33.141 293.594ZM-10.2599 168.058L11.7041 228.638L33.6597 289.219L75.2617 239.951L116.864 190.684L53.306 179.371L-10.2599 168.058Z" fill="#B7C7FB"/>
<path fill-rule="evenodd" clip-rule="evenodd" d="M11.2773 53.8763H225.01V259.204H11.2773V53.8763Z" fill="#EAF0FF"/>
<path fill-rule="evenodd" clip-rule="evenodd" d="M73.2705 87.6147H192.378V95.8135H73.2705V87.6147Z" fill="#B2C3FB"/>
<path fill-rule="evenodd" clip-rule="evenodd" d="M73.2705 124.184H192.378V132.382H73.2705V124.184Z" fill="#B2C3FB"/>
<path fill-rule="evenodd" clip-rule="evenodd" d="M73.2705 160.752H192.378V168.959H73.2705V160.752Z" fill="#B2C3FB"/>
<path d="M40.6714 98.3516C40.3032 98.3516 39.9434 98.218 39.6589 97.9509L33.0488 91.7225C32.4547 91.1631 32.4296 90.228 32.9902 89.6352C33.5508 89.0424 34.488 89.0174 35.082 89.5768L40.6797 94.845L53.4816 82.7807C54.0757 82.2213 55.0128 82.2463 55.5734 82.8391C56.134 83.4319 56.1089 84.367 55.5148 84.9264L41.7005 97.9509C41.4077 98.218 41.0395 98.3516 40.6714 98.3516Z" fill="#B2C3FB"/>
<path d="M40.6714 136.657C40.3032 136.657 39.9434 136.523 39.6589 136.256L33.0488 130.028C32.4547 129.468 32.4296 128.533 32.9902 127.941C33.5508 127.348 34.488 127.323 35.082 127.882L40.6797 133.15L53.4816 121.086C54.0757 120.527 55.0128 120.552 55.5734 121.144C56.134 121.737 56.1089 122.672 55.5148 123.232L41.7005 136.256C41.4077 136.523 41.0395 136.657 40.6714 136.657Z" fill="#B2C3FB"/>
<path d="M40.6714 174.954C40.3032 174.954 39.9434 174.82 39.6589 174.553L33.0488 168.325C32.4547 167.766 32.4296 166.83 32.9902 166.238C33.5508 165.645 34.488 165.62 35.082 166.179L40.6797 171.447L53.4816 159.383C54.0757 158.824 55.0128 158.849 55.5734 159.442C56.134 160.034 56.1089 160.969 55.5148 161.529L41.7005 174.553C41.4077 174.82 41.0395 174.954 40.6714 174.954Z" fill="#B2C3FB"/>
<path fill-rule="evenodd" clip-rule="evenodd" d="M73.2705 197.329H192.378V205.528H73.2705V197.329Z" fill="#F4F7FF"/>
<path fill-rule="evenodd" clip-rule="evenodd" d="M73.2705 233.898H192.378V242.105H73.2705V233.898Z" fill="#F4F7FF"/>
<path d="M336.336 271.703C329.224 271.703 322.33 270.317 315.837 267.57C309.561 264.923 303.93 261.133 299.094 256.307C294.257 251.481 290.459 245.862 287.806 239.601C285.062 233.122 283.665 226.242 283.665 219.145C283.665 212.049 285.054 205.169 287.806 198.69C290.459 192.429 294.257 186.81 299.094 181.984C303.93 177.158 309.561 173.368 315.837 170.721C322.33 167.983 329.224 166.588 336.336 166.588C343.449 166.588 350.343 167.974 356.836 170.721C363.112 173.368 368.743 177.158 373.579 181.984C378.415 186.81 382.214 192.429 384.867 198.69C387.611 205.169 389.008 212.049 389.008 219.145C389.008 226.242 387.619 233.122 384.867 239.601C382.214 245.862 378.415 251.481 373.579 256.307C368.743 261.133 363.112 264.923 356.836 267.57C350.343 270.317 343.449 271.703 336.336 271.703ZM336.336 169.552C329.626 169.552 323.116 170.863 316.991 173.451C311.076 175.948 305.754 179.529 301.194 184.08C296.625 188.638 293.044 193.94 290.542 199.843C287.949 205.954 286.635 212.45 286.635 219.145C286.635 225.841 287.949 232.337 290.542 238.448C293.044 244.351 296.634 249.661 301.194 254.211C305.762 258.77 311.076 262.343 316.991 264.84C323.116 267.428 329.626 268.739 336.336 268.739C343.047 268.739 349.557 267.428 355.682 264.84C361.597 262.343 366.919 258.762 371.479 254.211C376.039 249.661 379.629 244.351 382.13 238.448C384.724 232.337 386.038 225.841 386.038 219.145C386.038 212.45 384.724 205.954 382.13 199.843C379.629 193.94 376.039 188.63 371.479 184.08C366.91 179.521 361.597 175.948 355.682 173.451C349.557 170.863 343.047 169.552 336.336 169.552Z" fill="#E9EFFF"/>
<path fill-rule="evenodd" clip-rule="evenodd" d="M209.631 144.163C196.478 141.541 180.137 157.838 181.283 181.892L197.147 185.182C197.147 185.182 210.778 144.397 209.631 144.163Z" fill="#46DBC9"/>
<path d="M179.141 180.381C178.673 180.381 178.28 180.013 178.263 179.546C178.112 176.574 178.238 173.568 178.639 170.621C178.706 170.137 179.15 169.803 179.635 169.861C180.12 169.928 180.455 170.37 180.396 170.855C180.012 173.702 179.894 176.59 180.037 179.462C180.062 179.947 179.685 180.364 179.2 180.389C179.175 180.381 179.158 180.381 179.141 180.381Z" fill="#1B3C87"/>
<path d="M183.919 157.596C183.776 157.596 183.643 157.563 183.509 157.496C183.074 157.271 182.915 156.736 183.14 156.302C185.96 150.959 189.801 146.659 194.227 143.871C196.394 142.501 198.637 141.558 200.896 141.04C203.214 140.514 205.489 140.464 207.665 140.898C208.142 140.99 208.451 141.458 208.359 141.934C208.267 142.409 207.799 142.718 207.322 142.627C203.439 141.85 199.239 142.794 195.173 145.357C191.006 147.978 187.383 152.044 184.705 157.12C184.546 157.421 184.237 157.596 183.919 157.596Z" fill="#1B3C87"/>
<path fill-rule="evenodd" clip-rule="evenodd" d="M240.13 134.328C289.773 134.328 299.379 191.602 292.785 271.385C271.265 280.394 218.375 285.011 195.006 270.809C184.011 240.093 177.618 134.328 240.13 134.328Z" fill="#46DBC9"/>
<path fill-rule="evenodd" clip-rule="evenodd" d="M204.36 82.9392C204.36 61.9247 217.078 44.8843 232.767 44.8843C248.455 44.8843 261.173 61.9247 261.173 82.9392C261.173 103.954 248.455 120.994 232.767 120.994C217.078 120.994 204.36 103.954 204.36 82.9392Z" fill="white"/>
<path fill-rule="evenodd" clip-rule="evenodd" d="M227.453 82.9643C227.453 81.1275 228.215 79.6414 229.16 79.6414C230.106 79.6414 230.867 81.1275 230.867 82.9643C230.867 84.8011 230.106 86.2873 229.16 86.2873C228.215 86.2873 227.453 84.7928 227.453 82.9643Z" fill="#1B3C87"/>
<path d="M216.099 99.3701C215.873 99.3701 215.647 99.2867 215.472 99.1113C215.129 98.769 215.129 98.2096 215.472 97.8673C218.425 94.9118 218.701 90.0693 218.726 89.1259C218.743 88.6417 219.145 88.2576 219.63 88.2659C220.115 88.2826 220.5 88.6834 220.492 89.1676C220.45 90.6538 220.065 95.7717 216.718 99.1113C216.551 99.2867 216.325 99.3701 216.099 99.3701Z" fill="#1B3C87"/>
<path d="M226.106 107.636C225.671 107.636 225.295 107.318 225.228 106.876C225.161 106.392 225.504 105.949 225.981 105.882C229.06 105.465 231.235 104.263 232.616 102.217C232.892 101.816 233.436 101.708 233.846 101.975C234.248 102.251 234.356 102.793 234.089 103.202C232.432 105.657 229.779 107.151 226.223 107.636C226.181 107.636 226.14 107.636 226.106 107.636Z" fill="#1B3C87"/>
<path d="M284.644 213.051C284.51 213.051 284.368 213.017 284.242 212.95C283.991 212.825 259.04 200.043 247.402 194.182C246.967 193.965 246.791 193.43 247.008 192.996C247.226 192.562 247.761 192.387 248.197 192.604C258.003 197.538 277.231 207.373 283.222 210.446C282.151 206.805 279.858 199.083 278.662 195.693C278.503 195.234 278.745 194.733 279.205 194.566C279.666 194.407 280.168 194.649 280.335 195.108C281.933 199.659 285.464 211.798 285.498 211.923C285.598 212.257 285.481 212.625 285.213 212.85C285.046 212.984 284.845 213.051 284.644 213.051Z" fill="#1B3C87"/>
<path d="M215.447 208.375C215.363 208.375 215.279 208.367 215.187 208.333C214.719 208.191 214.459 207.699 214.601 207.231L217.597 197.388C217.739 196.92 218.233 196.661 218.701 196.803C219.17 196.945 219.429 197.438 219.287 197.905L216.292 207.749C216.183 208.125 215.831 208.375 215.447 208.375Z" fill="#1B3C87"/>
<path d="M223.948 180.414C223.864 180.414 223.781 180.406 223.689 180.372C223.22 180.23 222.961 179.738 223.103 179.27L227.086 166.171C227.228 165.703 227.722 165.444 228.19 165.586C228.659 165.728 228.918 166.221 228.776 166.688L224.793 179.788C224.684 180.164 224.333 180.414 223.948 180.414Z" fill="#1B3C87"/>
<path d="M236.28 277.939C229.327 277.939 222.675 277.522 216.643 276.704C205.899 275.243 197.264 272.571 190.98 268.755C190.805 268.647 190.679 268.488 190.604 268.296C186.679 257.334 182.964 235.551 183.508 211.606C183.793 199.058 185.215 187.528 187.734 177.333C190.637 165.578 194.955 155.843 200.577 148.412C200.87 148.02 201.423 147.945 201.816 148.237C202.209 148.529 202.284 149.08 201.992 149.473C196.519 156.711 192.302 166.229 189.457 177.751C186.972 187.82 185.567 199.216 185.282 211.64C184.747 235.142 188.336 256.499 192.168 267.403C198.218 271.01 206.535 273.548 216.877 274.95C226.123 276.203 236.841 276.495 247.894 275.794C248.38 275.76 248.798 276.128 248.831 276.62C248.865 277.104 248.497 277.522 248.003 277.555C244.045 277.806 240.113 277.939 236.28 277.939Z" fill="#1B3C87"/>
<path d="M277.44 273.214C277.047 273.214 276.678 272.946 276.586 272.546C276.469 272.07 276.754 271.594 277.231 271.477C281.523 270.417 285.28 269.231 288.393 267.97C290.861 237.847 290.802 213.668 288.225 194.057C286.819 183.37 284.619 173.977 281.682 166.137C278.611 157.939 274.637 151.159 269.859 145.991C265.759 141.549 260.948 138.16 255.559 135.906C249.979 133.576 243.594 132.391 236.583 132.391C228.918 132.391 221.973 134.035 215.932 137.275C215.506 137.509 214.97 137.342 214.736 136.916C214.501 136.49 214.669 135.956 215.096 135.722C221.396 132.34 228.625 130.629 236.583 130.629C243.829 130.629 250.439 131.856 256.237 134.277C261.86 136.624 266.88 140.164 271.156 144.797C276.084 150.141 280.184 157.112 283.33 165.52C286.317 173.484 288.551 183.011 289.974 193.823C292.585 213.668 292.635 238.148 290.108 268.647C290.083 268.972 289.874 269.265 289.572 269.39C286.276 270.767 282.268 272.045 277.657 273.189C277.582 273.205 277.507 273.214 277.44 273.214Z" fill="#1B3C87"/>
<path d="M287.38 353.431H287.372C286.886 353.423 286.493 353.031 286.493 352.538C286.502 351.745 287.322 272.771 287.322 267.511C287.322 267.027 287.715 266.626 288.208 266.626C288.702 266.626 289.095 267.019 289.095 267.511C289.095 272.78 288.275 351.761 288.267 352.555C288.259 353.039 287.865 353.431 287.38 353.431Z" fill="#1B3C87"/>
<path fill-rule="evenodd" clip-rule="evenodd" d="M227.102 183.203C224.107 183.203 211.171 184.848 218.493 196.787C222.693 203.625 224.425 201.663 226.182 199.5C227.554 200.21 229.663 201.896 231.027 203.023C231.018 203.048 231.01 203.065 231.002 203.09C234.7 205.971 283.556 248.526 293.597 251.081C303.638 253.635 314.942 243.717 319.284 236.261C324.079 228.037 314.992 194.674 313.385 190.992C311.779 187.311 282.376 199.141 282.376 199.141C282.376 199.141 287.137 213.351 288.392 219.229C285.623 217.676 241.929 196.369 236.239 189.815C236.231 189.832 236.223 189.865 236.206 189.89C234.131 187.761 229.403 183.203 227.102 183.203Z" fill="white"/>
<path d="M190.713 344.681C190.713 344.681 190.705 344.681 190.713 344.681C190.228 344.681 189.826 344.289 189.826 343.796L189.885 266.735C189.885 266.251 190.278 265.85 190.772 265.85C191.257 265.85 191.659 266.242 191.659 266.735L191.6 343.796C191.592 344.289 191.198 344.681 190.713 344.681Z" fill="#1B3C87"/>
<path d="M236.348 353.431C235.947 353.431 235.578 353.156 235.486 352.747C232.215 338.578 229.328 326.163 226.91 315.844C226.801 315.368 227.094 314.892 227.571 314.783C228.048 314.675 228.525 314.967 228.634 315.443C231.052 325.762 233.938 338.177 237.21 352.346C237.319 352.822 237.026 353.298 236.549 353.406C236.482 353.423 236.415 353.431 236.348 353.431Z" fill="#1B3C87"/>
<path fill-rule="evenodd" clip-rule="evenodd" d="M257.107 98.694C256.948 100.631 252.739 133.284 254.254 144.898C250.639 147.962 225.655 148.412 226.165 143.82C227.027 136.131 228.859 124.184 227.295 118.105" fill="white"/>
<path d="M223.956 141.316C223.923 141.316 223.889 141.316 223.856 141.307C223.371 141.257 223.019 140.815 223.078 140.331C223.203 139.187 223.345 138.009 223.479 136.874C224.266 130.253 225.077 123.407 224.366 117.671C224.308 117.187 224.651 116.745 225.136 116.686C225.621 116.628 226.065 116.97 226.123 117.454C226.86 123.399 226.04 130.353 225.236 137.083C225.103 138.218 224.96 139.395 224.835 140.531C224.785 140.982 224.4 141.316 223.956 141.316Z" fill="#1B3C87"/>
<path d="M240.665 144.647C240.197 144.647 239.804 144.28 239.787 143.804C239.762 143.32 240.138 142.902 240.632 142.885C246.179 142.627 249.752 141.833 251.108 141.09C249.945 130.721 252.572 109.172 253.442 102.009C253.576 100.932 253.668 100.147 253.693 99.8962C253.735 99.412 254.162 99.053 254.647 99.0947C255.132 99.1365 255.492 99.5623 255.45 100.047C255.425 100.33 255.342 101.04 255.199 102.226C254.321 109.464 251.643 131.481 252.932 141.408C252.974 141.7 252.856 142 252.631 142.192C251.819 142.885 250.288 143.436 247.953 143.879C245.928 144.263 243.435 144.53 240.724 144.655C240.69 144.647 240.682 144.647 240.665 144.647Z" fill="#1B3C87"/>
<path d="M230.558 118.865C220.659 118.865 211.505 112.303 206.067 101.316C205.849 100.881 206.033 100.347 206.468 100.13C206.903 99.9129 207.439 100.097 207.657 100.531C212.786 110.909 221.354 117.095 230.558 117.095C234.758 117.095 238.783 115.851 242.531 113.397C242.941 113.129 243.485 113.246 243.753 113.647C244.021 114.056 243.903 114.599 243.502 114.866C239.46 117.529 235.101 118.865 230.558 118.865Z" fill="#1B3C87"/>
<path d="M252.263 105.365C252.104 105.365 251.936 105.323 251.794 105.231C251.384 104.972 251.259 104.43 251.518 104.012C255.752 97.2996 258.078 88.7502 258.078 79.9336C258.078 59.4367 245.728 42.7554 230.558 42.7554C215.38 42.7554 203.038 59.4284 203.038 79.9336C203.038 82.981 203.314 86.0534 203.875 89.0507C203.967 89.5266 203.649 89.9942 203.164 90.0777C202.687 90.1695 202.227 89.8522 202.134 89.368C201.557 86.2622 201.264 83.0895 201.273 79.9336C201.273 69.5808 204.293 59.8375 209.765 52.4987C212.451 48.9086 215.581 46.0783 219.07 44.0996C222.71 42.0373 226.575 40.9937 230.566 40.9937C234.558 40.9937 238.423 42.0373 242.063 44.0996C245.552 46.0783 248.681 48.9002 251.367 52.4987C256.848 59.8375 259.86 69.5808 259.86 79.9336C259.86 84.5924 259.249 89.1426 258.044 93.4674C256.881 97.6502 255.191 101.516 253.024 104.956C252.84 105.223 252.555 105.365 252.263 105.365Z" fill="#1B3C87"/>
<path fill-rule="evenodd" clip-rule="evenodd" d="M258.739 103.895C261.927 104.471 267.307 87.2975 268.412 76.9364C270.37 58.4767 250.966 34.9992 236.474 33.5465C233.629 33.2626 230.416 36.1847 232.156 41.0689C228.642 37.387 219.43 32.5279 211.473 31.5009C199.382 29.948 193.542 37.9714 193.542 41.5365C193.542 45.1015 195.709 56.2809 200.051 59.7374C196.545 59.6956 193.424 60.0129 193.04 62.8516C191.835 71.5846 196.796 79.4828 205.197 78.673C205.783 73.7554 206.837 68.9881 208.569 65.7821C209.975 78.3975 242.105 74.1645 242.046 76.2685C241.804 84.3837 251.451 84.3837 251.786 84.5841C259.224 89.0508 253.652 102.977 258.739 103.895Z" fill="#EDCA55"/>
<path d="M198.913 75.7925C198.855 75.7925 198.796 75.7842 198.738 75.7758C195.441 75.1246 192.671 73.0206 190.931 69.848C189.266 66.8089 188.638 63.0018 189.174 59.1195C189.4 57.4831 190.387 56.356 192.102 55.7715C192.981 55.4793 193.993 55.3374 195.014 55.2789C193.96 53.9347 193.006 52.098 192.153 49.802C191.232 47.314 190.446 44.2499 189.994 41.4028C189.918 40.9186 190.245 40.4678 190.73 40.3926C191.215 40.3175 191.667 40.6431 191.743 41.1273C192.596 46.6043 194.746 53.1583 197.608 55.4376C197.901 55.6713 198.018 56.0721 197.892 56.4228C197.767 56.7734 197.424 57.0155 197.047 57.0072C192.822 56.9571 191.165 57.5916 190.923 59.3533C190.437 62.8682 190.989 66.2913 192.479 68.9964C193.968 71.7015 196.311 73.4965 199.081 74.0476C199.558 74.1394 199.867 74.6069 199.775 75.0828C199.7 75.5003 199.332 75.7925 198.913 75.7925Z" fill="#1B3C87"/>
<path d="M256.571 47.3975C256.295 47.3975 256.028 47.2722 255.852 47.0301C252.639 42.5884 248.857 38.7228 244.916 35.8424C240.883 32.8952 236.9 31.1502 233.394 30.7996C232.29 30.691 231.143 31.2003 230.415 32.1354C229.436 33.3794 229.294 35.1578 230.005 37.1448C230.148 37.5372 229.989 37.9714 229.637 38.1885C229.286 38.4055 228.826 38.3471 228.533 38.0465C225.085 34.4314 215.957 29.7225 208.376 28.7457C203.95 28.178 199.917 28.9127 196.72 30.858C196.302 31.1085 195.758 30.9833 195.507 30.5658C195.256 30.1483 195.382 29.6057 195.8 29.3552C198.268 27.8524 202.494 26.2243 208.602 27.0008C215.471 27.8774 223.312 31.551 227.796 35.0409C227.73 33.0872 228.466 31.7597 229.026 31.05C230.131 29.6391 231.871 28.8709 233.578 29.0463C237.394 29.4303 241.678 31.2838 245.962 34.4231C250.053 37.412 253.969 41.4195 257.291 46.0032C257.575 46.3956 257.492 46.9466 257.09 47.2388C256.94 47.3474 256.755 47.3975 256.571 47.3975Z" fill="#1B3C87"/>
<path d="M255.918 101.165C255.81 101.165 255.701 101.157 255.601 101.14C254.454 100.932 253.618 100.222 253.107 99.0196C252.747 98.168 252.538 97.0659 252.429 95.4295C252.396 94.9452 252.764 94.5194 253.249 94.486C253.735 94.4527 254.161 94.82 254.195 95.3043C254.379 98.0594 254.864 99.2116 255.91 99.4036C255.91 99.4036 256.529 99.3702 257.743 97.2162C258.638 95.6299 259.617 93.3005 260.571 90.4869C262.462 84.9181 264.018 78.1386 264.537 73.2211C264.838 70.3907 264.629 67.3266 263.909 64.129C263.8 63.6531 264.102 63.1855 264.579 63.077C265.056 62.9684 265.524 63.269 265.633 63.7449C266.394 67.1346 266.62 70.3907 266.294 73.4131C265.8 78.0385 264.478 84.0581 262.746 89.5184C261.884 92.2235 260.972 94.6363 260.102 96.4815C259.09 98.6272 258.161 100.005 257.266 100.673C256.822 100.998 256.362 101.165 255.918 101.165Z" fill="#1B3C87"/>
<path d="M239.603 76.8111C239.26 76.8111 238.934 76.6107 238.791 76.2684C238.39 75.3166 238.181 74.248 238.164 73.0708C237.26 72.862 234.733 72.7869 232.474 72.7284C227.705 72.5949 221.178 72.4028 215.664 71.1171C212.543 70.3907 210.159 69.4055 208.36 68.1281C206.996 67.1513 206 66.0158 205.389 64.7134C205.247 65.0891 205.113 65.4731 204.988 65.8572C204.837 66.3247 204.343 66.5752 203.875 66.4333C203.406 66.283 203.155 65.7904 203.298 65.3228C203.691 64.0955 204.193 62.8933 204.787 61.7495C204.971 61.4071 205.356 61.2235 205.732 61.2903C206.117 61.3654 206.402 61.6743 206.444 62.0584C206.653 63.9119 207.607 65.4314 209.372 66.6921C210.954 67.8192 213.204 68.7293 216.049 69.3972C221.387 70.6495 227.814 70.8332 232.508 70.9668C234.273 71.0169 235.796 71.0586 236.942 71.1505C238.524 71.2757 239.218 71.4677 239.611 71.8852C239.821 72.1023 239.929 72.3861 239.921 72.6783C239.887 73.7721 240.055 74.7489 240.406 75.5838C240.599 76.0347 240.39 76.5523 239.938 76.736C239.837 76.7944 239.72 76.8111 239.603 76.8111Z" fill="#1B3C87"/>
<path fill-rule="evenodd" clip-rule="evenodd" d="M245.058 80.8186C248.321 78.5561 252.806 79.3659 255.074 82.622C257.341 85.8782 256.53 90.3532 253.266 92.6158C252.061 93.4507 250.622 93.9016 249.15 93.9016C248.715 93.9016 248.279 93.8598 247.844 93.7847" fill="white"/>
<path d="M248.514 93.2837C248.506 93.2837 248.506 93.2837 248.497 93.2837C248.012 93.2837 247.527 93.242 247.05 93.1501C246.573 93.0666 246.246 92.6074 246.339 92.1232C246.431 91.639 246.882 91.33 247.368 91.4135C247.744 91.4803 248.121 91.5137 248.506 91.5137H248.514C249.811 91.5137 251.058 91.1213 252.112 90.3866C253.501 89.4265 254.421 87.9904 254.722 86.329C255.024 84.6759 254.656 82.9977 253.693 81.6201C252.731 80.2425 251.292 79.3158 249.627 79.0152C247.97 78.7147 246.288 79.082 244.908 80.0421C244.506 80.3177 243.954 80.2175 243.678 79.8167C243.402 79.416 243.502 78.8649 243.904 78.5894C245.678 77.3621 247.82 76.8946 249.945 77.2786C252.07 77.6627 253.919 78.8482 255.149 80.6182C256.379 82.3882 256.848 84.5256 256.463 86.6462C256.078 88.7669 254.89 90.612 253.116 91.8393C251.76 92.7828 250.162 93.2837 248.514 93.2837Z" fill="#1B3C87"/>
<path fill-rule="evenodd" clip-rule="evenodd" d="M159.654 180.982L211.882 189.306L199.256 268.213L147.028 259.889L159.654 180.982Z" fill="#B2C3FB"/>
<path d="M144.601 255.773C144.551 255.773 144.509 255.773 144.459 255.764C143.974 255.689 143.647 255.238 143.723 254.754L156.349 175.847C156.382 175.614 156.516 175.413 156.7 175.271C156.893 175.138 157.127 175.079 157.361 175.113L209.59 183.437C210.075 183.512 210.401 183.963 210.326 184.447L206.259 209.878C206.184 210.362 205.732 210.688 205.247 210.613C204.762 210.538 204.435 210.087 204.511 209.603L208.435 185.04L157.947 176.991L145.455 255.03C145.405 255.455 145.028 255.773 144.601 255.773Z" fill="#1B3C87"/>
<path d="M196.829 264.088C196.779 264.088 196.737 264.088 196.687 264.08L161.067 258.403C160.582 258.327 160.256 257.877 160.331 257.392C160.406 256.908 160.858 256.582 161.344 256.658L196.093 262.193L199.858 238.649C199.933 238.164 200.385 237.839 200.87 237.914C201.356 237.989 201.682 238.44 201.607 238.924L197.699 263.337C197.632 263.779 197.256 264.088 196.829 264.088Z" fill="#1B3C87"/>
<path fill-rule="evenodd" clip-rule="evenodd" d="M144.651 244.86C142.275 226.927 144.099 215.188 154.341 211.848C158.474 210.496 154.399 236.712 152.759 241.028C151.119 245.345 146.601 240.419 144.651 244.86Z" fill="white"/>
<path d="M142.995 226.434C142.618 226.434 142.267 226.192 142.15 225.808C141.765 224.539 141.087 221.174 143.146 217.317C145.179 213.518 149.17 210.538 155.01 208.475C155.471 208.317 155.973 208.55 156.14 209.01C156.299 209.469 156.065 209.97 155.604 210.137C150.191 212.049 146.526 214.745 144.71 218.152C142.962 221.425 143.522 224.238 143.848 225.299C143.991 225.766 143.731 226.259 143.263 226.401C143.162 226.426 143.079 226.434 142.995 226.434Z" fill="#1B3C87"/>
<path d="M142.183 237.43C141.806 237.43 141.455 237.188 141.338 236.804C140.953 235.535 140.275 232.17 142.334 228.313C144.367 224.514 148.358 221.533 154.198 219.471C154.659 219.304 155.161 219.546 155.328 220.005C155.487 220.465 155.253 220.965 154.792 221.132C149.379 223.044 145.714 225.741 143.898 229.139C142.15 232.412 142.71 235.226 143.028 236.286C143.17 236.753 142.911 237.246 142.442 237.388C142.359 237.421 142.267 237.43 142.183 237.43Z" fill="#1B3C87"/>
<path d="M142.911 246.889C142.534 246.889 142.183 246.647 142.065 246.263C141.681 244.994 141.003 241.629 143.061 237.772C145.094 233.973 149.086 230.993 154.926 228.93C155.386 228.772 155.888 229.006 156.055 229.465C156.214 229.924 155.98 230.425 155.52 230.592C150.106 232.504 146.442 235.201 144.626 238.607C142.877 241.88 143.438 244.702 143.764 245.754C143.906 246.221 143.647 246.714 143.178 246.856C143.086 246.881 142.994 246.889 142.911 246.889Z" fill="#1B3C87"/>
<path d="M241.87 83.3317C241.753 83.3317 241.636 83.3067 241.527 83.2649C241.076 83.0729 240.866 82.5553 241.059 82.1128C241.653 80.6934 242.64 79.4828 243.912 78.6061C244.314 78.3306 244.866 78.4308 245.142 78.8316C245.418 79.2323 245.318 79.7834 244.916 80.0589C243.929 80.7435 243.159 81.6953 242.69 82.8057C242.54 83.123 242.213 83.3317 241.87 83.3317Z" fill="#1B3C87"/>
<path d="M294.835 247.507C293.471 247.507 292.274 247.323 291.27 247.073C289.622 246.656 287.062 245.261 283.447 242.832C280.359 240.753 276.594 237.964 271.925 234.324C263.424 227.687 253.534 219.404 245.585 212.758C237.536 206.021 229.93 199.659 228.533 199.049C228.089 198.857 227.88 198.331 228.081 197.889C228.282 197.446 228.801 197.238 229.244 197.438C230.792 198.114 236.599 202.94 246.723 211.414C262.119 224.305 285.397 243.775 291.705 245.378C297.086 246.747 302.432 244.209 305.972 241.846C310.113 239.075 314.113 234.908 316.405 230.976C316.882 230.158 317.225 228.989 317.435 227.494C317.502 227.01 317.953 226.676 318.43 226.743C318.916 226.81 319.25 227.252 319.183 227.737C318.941 229.482 318.531 230.826 317.928 231.861C315.468 236.077 311.368 240.36 306.95 243.316C302.106 246.547 297.998 247.507 294.835 247.507Z" fill="#1B3C87"/>
<path d="M316.791 208.818C316.372 208.818 316.004 208.517 315.92 208.1C314.021 197.83 311.201 188.17 310.465 186.484C310.273 186.033 310.473 185.515 310.925 185.323C311.377 185.131 311.896 185.332 312.088 185.783C313.009 187.895 315.82 197.847 317.661 207.782C317.753 208.258 317.435 208.717 316.95 208.809C316.899 208.818 316.841 208.818 316.791 208.818Z" fill="#1B3C87"/>
<path d="M233.561 187.411C233.202 187.411 232.859 187.185 232.725 186.826C231.553 183.545 229.863 181.591 227.713 181.032C223.889 180.03 218.936 183.428 215.455 186.459C215.087 186.776 214.526 186.743 214.208 186.375C213.89 186.008 213.924 185.449 214.292 185.131C219.814 180.322 224.483 178.369 228.156 179.329C230.909 180.047 233.001 182.368 234.381 186.242C234.549 186.701 234.306 187.202 233.846 187.369C233.754 187.394 233.662 187.411 233.561 187.411Z" fill="#1B3C87"/>
<path d="M215.681 192.529C215.43 192.529 215.187 192.42 215.012 192.22C214.694 191.852 214.735 191.293 215.104 190.976C217.564 188.872 222.944 186.759 225.379 186.935C225.864 186.968 226.232 187.394 226.199 187.878C226.165 188.362 225.738 188.73 225.253 188.696C223.437 188.563 218.476 190.416 216.258 192.32C216.091 192.453 215.882 192.529 215.681 192.529Z" fill="#1B3C87"/>
<path d="M218.066 198.056C217.739 198.056 217.421 197.872 217.271 197.563C217.053 197.129 217.237 196.595 217.672 196.386L217.764 196.344C220.718 194.9 224.4 193.096 226.851 193.155C227.337 193.163 227.73 193.572 227.713 194.057C227.705 194.541 227.295 194.933 226.809 194.916C224.793 194.875 221.178 196.636 218.543 197.93L218.451 197.972C218.325 198.022 218.191 198.056 218.066 198.056Z" fill="#1B3C87"/>
<path fill-rule="evenodd" clip-rule="evenodd" d="M274.704 140.548C298.023 132.633 320.447 182.911 319.351 188.179C318.255 193.447 281.54 204.075 277.314 200.752C273.089 197.43 261.199 145.131 274.704 140.548Z" fill="#46DBC9"/>
<path d="M277.548 198.957C275.724 198.957 274.536 198.699 273.824 198.139C272.737 197.279 271.44 194.349 269.976 189.431C268.561 184.664 267.248 178.836 266.286 173.034C266.202 172.549 266.528 172.099 267.013 172.023C267.499 171.948 267.951 172.266 268.026 172.75C268.971 178.486 270.268 184.238 271.666 188.939C273.649 195.618 274.787 196.661 274.912 196.762C275.046 196.87 275.657 197.221 277.69 197.204C279.188 197.196 281.121 196.987 283.43 196.603C283.915 196.52 284.367 196.845 284.451 197.329C284.535 197.814 284.208 198.265 283.723 198.348C281.313 198.749 279.288 198.957 277.699 198.974C277.657 198.957 277.598 198.957 277.548 198.957Z" fill="#1B3C87"/>
<path d="M293.873 196.027C293.488 196.027 293.128 195.768 293.019 195.376C292.894 194.908 293.17 194.424 293.638 194.29C299.119 192.796 304.574 190.934 308.591 189.181C314.891 186.426 315.494 184.956 315.544 184.689C315.711 183.871 314.967 180.356 312.189 174.044C310.582 170.387 307.101 163.14 301.889 155.709C296.55 148.103 288.242 138.761 279.013 137.433C278.527 137.367 278.193 136.916 278.259 136.432C278.326 135.947 278.778 135.613 279.264 135.68C289.12 137.099 297.797 146.793 303.336 154.683C308.641 162.238 312.18 169.602 313.812 173.326C315 176.023 315.954 178.536 316.565 180.581C317.535 183.787 317.335 184.731 317.276 185.04C317.075 185.991 316.238 186.927 314.64 188.004C313.335 188.872 311.544 189.807 309.302 190.792C305.21 192.579 299.671 194.474 294.107 195.985C294.032 196.01 293.948 196.027 293.873 196.027Z" fill="#1B3C87"/>
<path fill-rule="evenodd" clip-rule="evenodd" d="M289.865 352.546L289.94 272.078L193.407 271.469L193.072 352.546H289.865Z" fill="#3C3744"/>
</g>
<defs>
<clipPath id="clip0">
<rect width="403" height="359" fill="white" transform="translate(-14)"/>
</clipPath>
</defs>
</svg>
