<svg width="30" height="30" viewBox="0 0 30 30" fill="none" xmlns="http://www.w3.org/2000/svg">
<path d="M15.5 15.5C19.2125 15.5 22.25 12.4625 22.25 8.75C22.25 5.0375 19.2125 2 15.5 2C11.7875 2 8.75 5.0375 8.75 8.75C8.75 12.4625 11.7875 15.5 15.5 15.5ZM15.5 18.875C10.9437 18.875 2 21.0687 2 25.625V27.3125C2 28.1562 2.675 29 3.6875 29H27.3125C28.1562 29 29 28.1562 29 27.3125V25.625C29 21.0687 20.0563 18.875 15.5 18.875Z" fill="#00509E"/>
</svg>
